-----BEGIN PGP SIGNED MESSAGE-----
Hash: SHA1

Lizenzbestimmungen



Fantasya basiert auf German Atlantis 6.6 von Alexander Schroeder. Die Lizenz von GA6.6
verbietet die kommerzielle Nutzung. Daher wird Fantasya ebenfalls unter dieser Bedingungen
zur Verfügung gestellt.



hand, ronny gorzelitz <mogel@x8bit.de>

-----BEGIN PGP SIGNATURE-----
Version: GnuPG v1.4.6 (GNU/Linux)

iD8DBQFIYklk5i5v6eXvYJoRAtMBAJ9gA2diie3jRjuVGCXDHVVHP0A0CQCePTDH
ZGEgxztRXzFQoadhEQV6jWI=
=j7LM
-----END PGP SIGNATURE-----
